{
    "feed_port": 8081,
    "nn_serv_port": 8080,
    "query_params": [
        { "label": "subid", "size": 32 },
        { "label": "browser", "size": 32 },
        { "label": "os", "size": 32 },
        { "label": "ref", "size": 32 },
        { "label": "kw", "size": 32 },
        { "label": "country", "size": 32 }
    ],
    "batching_time": 30,
    "regularization": 0.1,
    "layers_sizes": [15, 10],
    "activation": "tanh"
}